{
  "charts": [
    {
      "longName": "This is the event chart",
      "name": "Event",
      "slug": "event",
      "descriptionHTML": "<p>Lorem ipsum dolor sit amet, behavior swimming toy money buy president oxygen salmon paragraph carbon raise feet rabbit natural hat history activity border series cent chapter sky about western</p>",
      "years": [
        {
          "year": 2017,
          "prediction": true,
          "average": 7635577.60,
          "events": [
            {
              "name": "The International 2017",
              "value": 24787919.00
            },
            {
              "name": "2017 World Championship",
              "value": 4946969.00
            },
            {
              "name": "WESG 2016",
              "value": 3702000.00
            },
            {
              "name": "The Kiev Major 2017",
              "value": 3000000.00
            },
            {
              "name": "DreamHack Winter 2017",
              "value": 1741000.00
            }
          ]
        },
        {
          "year": 2016,
          "prediction": false,
          "average": 6968092.00,
          "events": [
            {
              "name": "The International 2016",
              "value": 20770460.00
            },
            {
              "name": "2016 World Championship",
              "value": 5070000.00
            },
            {
              "name": "The Boston Major 2016",
              "value": 3000000.00
            },
            {
              "name": "The Manila Major 2016",
              "value": 3000000.00
            },
            {
              "name": "The Shanghai Major 2016",
              "value": 3000000.00
            }
          ]
        },
        {
          "year": 2015,
          "prediction": false,
          "average": 5845878.61,
          "events": [
            {
              "name": "The International 2016",
              "value": 18429613.05
            },
            {
              "name": "2016 World Championship",
              "value": 3057521.00
            },
            {
              "name": "The Boston Major 2016",
              "value": 3000000.00
            },
            {
              "name": "The Manila Major 2016",
              "value": 2612259.00
            },
            {
              "name": "The Shanghai Major 2016",
              "value": 2130000.00
            }
          ]
        },
        {
          "year": 2018,
          "prediction": true,
          "average": 7845878.61,
          "events": [
            {
              "name": "The International 2018",
              "value": 16429613.05
            },
            {
              "name": "2018 World Championship",
              "value": 3257521.00
            },
            {
              "name": "The Boston Major 2018",
              "value": 3100000.00
            },
            {
              "name": "The Manila Major 2018",
              "value": 2812259.00
            },
            {
              "name": "The Shanghai Major 2018",
              "value": 2530000.00
            }
          ]
        }
      ]
    },
    {
      "longName": "This is the player chart",
      "name": "Player",
      "slug": "player",
      "descriptionHTML": "<p>Lorem ipsum dolor sit amet, catch term carry pleasant company fill heard area valley trail keep western flower jet bag title elephant fence music line contain whatever lady broad</p>",
      "years": [
        {
          "year": 2017,
          "prediction": true,
          "average": 7635577.60,
          "events": [
            {
              "name": "KuroKy",
              "value": 2436772.40
            },
            {
              "name": "Miracle-",
              "value": 2421583.03
            },
            {
              "name": "MinD_ContRoL",
              "value": 2421272.40
            },
            {
              "name": "GH",
              "value": 2420658.78
            },
            {
              "name": "Matumbaman",
              "value": 2416772.40
            }
          ]
        },
        {
          "year": 2016,
          "prediction": true,
          "average": 6968092.00,
          "events": [
            {
              "name": "JerAx",
              "value": 2290631.60
            },
            {
              "name": "N0tail",
              "value": 2282716.63
            },
            {
              "name": "7ckngMad",
              "value": 2280216.63
            },
            {
              "name": "Topson",
              "value": 2249841.60
            },
            {
              "name": "ana",
              "value": 2249136.18
            }
          ]
        },
        {
          "year": 2015,
          "prediction": false,
          "average": 6668092.00,
          "events": [
            {
              "name": "JerAx",
              "value": 1990631.60
            },
            {
              "name": "N0tail",
              "value": 1882716.63
            },
            {
              "name": "7ckngMad",
              "value": 2380216.63
            },
            {
              "name": "Topson",
              "value": 2449841.60
            },
            {
              "name": "ana",
              "value": 2149136.18
            }
          ]
        }
      ]
    }
  ],
  "profileItems": [
    {
      "name": "wing bit",
      "slug": "item1",
      "copyHTML": "Lorem ipsum dolor sit amet consectetur adipisicing elit. Alias ipsam magnam dolorem voluptatem exercitationem at quibusdam ipsum magni! Blanditiis atque aperiam consequuntur soluta eius quos, accusamus quia? Aperiam, nobis eius!"
    },
    {
      "name": "made opportunity",
      "slug": "item2",
      "copyHTML": "Lorem ipsum dolor sit amet, consectetur adipisicing elit. Delectus voluptates dolores ab corrupti saepe, fugit dicta repellat quae similique ducimus quibusdam architecto animi sit nam soluta magnam vel deserunt consectetur?"
    },
    {
      "name": "lion ball",
      "slug": "item3",
      "copyHTML": "Lorem ipsum dolor sit amet consectetur, adipisicing elit. Officiis ut eius numquam placeat dolorem enim aliquam quam perferendis corporis eligendi ea nemo nobis laborum excepturi doloremque, impedit vitae quaerat voluptate."
    },
    {
      "name": "doctor strange",
      "slug": "item4",
      "copyHTML": "Lorem ipsum dolor sit amet consectetur adipisicing elit. Nisi iusto nulla voluptas. Aliquid, quae quas sapiente nulla ducimus, sit repellat quisquam praesentium accusantium similique vero obcaecati, adipisci deleniti nobis nesciunt?"
    },
    {
      "name": "fight rocket",
      "slug": "item5",
      "copyHTML": "Lorem ipsum dolor sit amet, consectetur adipisicing elit. Doloremque ut natus officia beatae iusto ex a molestiae quae labore deleniti magnam fuga expedita laudantium vitae totam, delectus repudiandae eos! Beatae!"
    },
    {
      "name": "gently win",
      "slug": "item6",
      "copyHTML": "Lorem ipsum dolor sit amet consectetur adipisicing elit. Minima, eum, dolorum minus natus in adipisci similique accusamus obcaecati laborum ipsa eaque. Ex laborum corporis quia illo ut quos. Molestiae, quos."
    }
  ],
  "copy": {
    "pieceTitle": "lonely rather atomic?",
    "splashHTML": "wood memory animal carried driven particular damage fastened muscle twenty finger sea level telephone fruit represent percent excited throat evidence little tightly farmer pale",
    "aboutHTML": "throat slight slightly source native consider friendly eaten solar happen party tightly wheat gift final indeed doing respect than thick count oxygen cause plates",
    "facebook": "introduced worry pain excited anyone corner moment begun to believed gray castle long wash bound education weather information language farmer tide stepped done please",
    "twitter": "leader give teacher horse drew same disappear today represent leaf pan clearly stranger eat action sea century hundred brother sometime fifty blind health enough",
    "clientLinkHref": "dummyClientLinkHref",
    "clientName": "dummy client name",
    "defaultDescription": "dummy default description"
  }
}
